<svg width="160" height="161" viewBox="0 0 160 161" fill="none" xmlns="http://www.w3.org/2000/svg">
    <circle cx="80" cy="80.85" r="80" fill="#20053B"/>
    <g clip-path="url(#a)" fill="#fff">
        <path d="M80.5 56.116c6.148 0 11.133-4.985 11.133-11.133 0-6.149-4.984-11.133-11.133-11.133-6.148 0-11.133 4.984-11.133 11.133 0 6.148 4.984 11.133 11.133 11.133zM66.584 70.032v8.535h27.832v-8.535c0-7.673-6.243-13.916-13.916-13.916s-13.916 6.243-13.916 13.916zM113.898 56.116c6.149 0 11.133-4.985 11.133-11.133 0-6.149-4.984-11.133-11.133-11.133-6.148 0-11.132 4.984-11.132 11.133 0 6.148 4.984 11.133 11.132 11.133zM113.898 56.116c-7.672 0-13.916 6.243-13.916 13.916v8.535H128v-8.535c0-7.673-6.429-13.916-14.102-13.916zM47.102 56.116c6.148 0 11.132-4.985 11.132-11.133 0-6.149-4.984-11.133-11.132-11.133-6.149 0-11.133 4.984-11.133 11.133 0 6.148 4.984 11.133 11.133 11.133zM61.018 70.032c0-7.673-6.243-13.916-13.916-13.916S33 62.359 33 70.032v8.535h28.018v-8.535zM94.362 84.133H66.637c.156 6.437.826 12.58 1.876 17.786a81.44 81.44 0 0 1 11.986-.901c4.127 0 8.142.32 11.985.908 1.052-5.208 1.722-11.354 1.878-17.793zM127.859 84.133H99.931c-.152 6.377-.813 12.963-1.987 18.852 7.543 1.751 14.165 4.602 19.25 8.255 6.03-7.457 10.069-16.933 10.665-27.107zM69.834 107.38c2.749 9.802 6.834 15.904 10.665 15.904 3.834 0 7.922-6.111 10.671-15.926a73.983 73.983 0 0 0-10.671-.774c-3.675 0-7.242.294-10.665.796zM64.335 108.391c-6.621 1.533-12.385 3.978-16.777 7.003 8.514 8.31 20.123 13.456 32.942 13.456-7.526 0-12.971-8.647-16.165-20.459zM96.662 108.402c-3.194 11.806-8.639 20.448-16.162 20.448 12.83 0 24.45-5.157 32.967-13.482-4.408-3.034-10.204-5.445-16.805-6.966zM61.07 84.133H33.142c.593 10.133 4.604 19.574 10.592 27.016 5.048-3.647 11.677-6.481 19.311-8.216-1.167-5.874-1.823-12.442-1.975-18.8z"/>
    </g>
    <defs>
        <clipPath id="a">
            <path fill="#fff" transform="translate(33 33.85)" d="M0 0h95v95H0z"/>
        </clipPath>
    </defs>
</svg>
