<svg width="160" height="160" viewBox="0 0 160 160" fill="none" xmlns="http://www.w3.org/2000/svg">
    <circle cx="80" cy="80" r="80" fill="#20053B"/>
    <path d="M62.603 81.836A5.477 5.477 0 0 0 53.39 77.7l-9.214 8.7a5.47 5.47 0 1 0 7.508 7.96l9.214-8.7a5.436 5.436 0 0 0 1.706-3.823zM104.584 35.335a27.087 27.087 0 0 0-19.457 7.409C46.16 79.54 83.853 43.949 66.699 60.15a3.767 3.767 0 0 0-1.154 2.567c-.1 3.97 6.882 7.075 11.285 2.911l13.228-12.485a5.316 5.316 0 0 1 7.515.216l26.137 27.703c15.717-16.864 4.473-45.037-19.126-45.727zM82.482 102.908a5.477 5.477 0 0 0-9.214-4.138l-9.214 8.701a5.47 5.47 0 1 0 7.508 7.957l9.214-8.7a5.427 5.427 0 0 0 1.706-3.82z" fill="#fff"/>
    <path d="M122.408 84.84c-.178-.126.374.404-27.416-29.048a1.772 1.772 0 0 0-2.505-.07l-13.228 12.48a10.796 10.796 0 0 1-15.288-.446 7.192 7.192 0 0 1 .286-10.18l14.512-13.703A27.198 27.198 0 1 0 39.19 81.186l2.512 2.658c.156-.177.016-.02 9.243-8.729a9 9 0 0 1 15.026 8.176 8.929 8.929 0 0 1 9.94 10.53 8.937 8.937 0 0 1 9.94 10.542 8.908 8.908 0 0 1 9.994 10.128 5.463 5.463 0 0 0 6.716-8.475l-23.61-25.014a1.773 1.773 0 0 1 2.579-2.433l23.609 25.021a5.47 5.47 0 0 0 7.956-7.511l-23.61-25.02a1.772 1.772 0 0 1 2.577-2.43l23.613 25.019a5.475 5.475 0 0 0 9.45-3.61 6.858 6.858 0 0 0-2.718-5.198z" fill="#fff"/>
    <path d="M87.115 107.816a5.434 5.434 0 0 0-3.912 1.489l-9.214 8.702a5.47 5.47 0 1 0 7.51 7.957l9.213-8.7a5.478 5.478 0 0 0-3.597-9.448zM72.542 92.372a5.477 5.477 0 0 0-9.214-4.138l-9.214 8.7a5.472 5.472 0 0 0 7.51 7.96l9.214-8.702a5.434 5.434 0 0 0 1.704-3.82z" fill="#fff"/>
</svg>
